Slot:	0000:06:00.0
Class:	VGA compatible controller
Vendor:	Advanced Micro Devices, Inc. [AMD/ATI]
Device:	Navi 23 [Radeon RX 6650 XT / 6700S / 6800S]
SVendor:	XFX Limited
SDevice:	Navi 23 [Radeon RX 6650 XT / 6700S / 6800S]
Rev:	c1
ProgIf:	00
IOMMUGroup:	25

